\begin{thebibliography}{33}
\expandafter\ifx\csname natexlab\endcsname\relax\def\natexlab#1{#1}\fi

\bibitem[{Anderson {\em et~al.\/}(1992)Anderson, Bai, Bischof, Demmel,
  Dongarra, Croz, Greenbaum, Hammarling, McKenney, and
  Sorensen}]{Anderson:1992:LUG}
Anderson, E., Z.~Bai, C.~Bischof, J.~Demmel, J.~Dongarra, J.~D. Croz,
  A.~Greenbaum, S.~Hammarling, A.~McKenney, and D.~Sorensen (1992).
\newblock {\em {LAPACK} User's Guide\/}.
\newblock Society for Industrial and Applied Mathematics, Philadelphia, PA.

\bibitem[{Bai {\em et~al.\/}(2000)Bai, Demmel, Dongarra, Ruhe, and van~der
  Vorst}]{Bai:2000:TSA}
Bai, Z., J.~Demmel, J.~Dongarra, A.~Ruhe, and H.~van~der Vorst (eds.) (2000).
\newblock {\em Templates for the Solution of Algebraic Eigenvalue Problems: A
  Practical Guide\/}.
\newblock Society for Industrial and Applied Mathematics, Philadelphia, PA.

\bibitem[{Balay {\em et~al.\/}(2014)Balay, Abhyankar, Adams, Brown, Brune, Buschelman,
  Eijkhout, Gropp, Kaushik, Knepley, McInnes, Rupp, Smith, and Zhang}]{Balay:2014:PUM}
Balay, S., S.~Abhyankar, M.~Adams, J.~Brown, P.~Brune, K.~Buschelman, V.~Eijkhout,
  W.~Gropp, D.~Kaushik, M.~Knepley, L.~C. McInnes, K.~Rupp, B.~Smith, and H.~Zhang (2014).
\newblock {PETSc} Users Manual.
\newblock Technical Report ANL-95/11 - Revision 3.5, Argonne National
  Laboratory.

\bibitem[{Balay {\em et~al.\/}(1997)Balay, Gropp, McInnes, and
  Smith}]{Balay:1997:EMP}
Balay, S., W.~D. Gropp, L.~C. McInnes, and B.~F. Smith (1997).
\newblock Efficient management of parallelism in object oriented numerical
  software libraries.
\newblock In {\em Modern Software Tools in Scientific Computing\/} (edited by
  E.~Arge, A.~M. Bruaset, and H.~P. Langtangen), pp. 163--202. Birkha{\"u}ser.

\bibitem[{Betcke(2008)}]{Betcke:2008:OSG}
Betcke, T. (2008).
\newblock Optimal scaling of generalized and polynomial eigenvalue problems.
\newblock {\em {SIAM} J. Matrix Anal. Appl.\/}, 30(4):1320--1338.

\bibitem[{Betcke and Kressner(2011)}]{Betcke:2011:PER}
Betcke, T. and D.~Kressner (2011).
\newblock Perturbation, extraction and refinement of invariant pairs for matrix
  polynomials.
\newblock {\em Linear Algebra and its Applications\/}, 435(3):514--536.

\bibitem[{Bj{\"o}rck(1996)}]{Bjorck:1996:NML}
Bj{\"o}rck, {\AA}. (1996).
\newblock {\em Numerical Methods for Least Squares Problems\/}.
\newblock Society for Industrial and Applied Mathematics, Philadelphia.

\bibitem[{Campos and Roman(2012)}]{Campos:2012:SSS}
Campos, C. and J.~E. Roman (2012).
\newblock Strategies for spectrum slicing based on restarted {Lanczos} methods.
\newblock {\em Numer. Algorithms\/}, 60(2):279--295.

\bibitem[{Canning {\em et~al.\/}(2000)Canning, Wang, Williamson, and
  Zunger}]{Canning:2000:PEP}
Canning, A., L.~W. Wang, A.~Williamson, and A.~Zunger (2000).
\newblock Parallel empirical pseudopotential electronic structure calculations
  for million atom systems.
\newblock {\em J. Comput. Phys.\/}, 160(1):29--41.

\bibitem[{Chen and Demmel(2000)}]{Chen:2000:BSM}
Chen, T.-Y. and J.~W. Demmel (2000).
\newblock Balancing sparse matrices for computing eigenvalues.
\newblock {\em Linear Algebra Appl.\/}, 309(1--3):261--287.

\bibitem[{Ericsson and Ruhe(1980)}]{Ericsson:1980:STL}
Ericsson, T. and A.~Ruhe (1980).
\newblock The spectral transformation {Lanczos} method for the numerical
  solution of large sparse generalized symmetric eigenvalue problems.
\newblock {\em Math. Comp.\/}, 35(152):1251--1268.

\bibitem[{Golub and van~der Vorst(2000)}]{Golub:2000:EC2}
Golub, G.~H. and H.~A. van~der Vorst (2000).
\newblock Eigenvalue computation in the 20th century.
\newblock {\em J. Comput. Appl. Math.\/}, 123(1-2):35--65.

\bibitem[{Grimes {\em et~al.\/}(1994)Grimes, Lewis, and
  Simon}]{Grimes:1994:SBL}
Grimes, R.~G., J.~G. Lewis, and H.~D. Simon (1994).
\newblock A shifted block {Lanczos} algorithm for solving sparse symmetric
  generalized eigenproblems.
\newblock {\em {SIAM} J. Matrix Anal. Appl.\/}, 15(1):228--272.

\bibitem[{Hansen(1998)}]{Hansen:1998:RDI}
Hansen, P.~C. (1998).
\newblock {\em Rank-Deficient and Discrete Ill-Posed Problems: Numerical
  Aspects of Linear Inversion\/}.
\newblock Society for Industrial and Applied Mathematics, Philadelphia, PA.

\bibitem[{Higham and Al-Mohy(2010)}]{Higham:2010:CMF}
Higham, N.~J. and A.~H. Al-Mohy (2010).
\newblock Computing matrix functions.
\newblock {\em Acta Numerica\/}, 19:159--208.

\bibitem[{Knyazev {\em et~al.\/}(2007)Knyazev, Argentati, Lashuk, and
  Ovtchinnikov}]{Knyazev:2007:BLO}
Knyazev, A.~V., M.~E. Argentati, I.~Lashuk, and E.~E. Ovtchinnikov (2007).
\newblock {B}lock {L}ocally {O}ptimal {P}reconditioned {E}igenvalue {X}olvers
  ({BLOPEX}) in {HYPRE} and {PETSc}.
\newblock {\em {SIAM} J. Sci. Comput.\/}, 29(5):2224--2239.

\bibitem[{Lehoucq and Salinger(2001)}]{Lehoucq:2001:LEC}
Lehoucq, R.~B. and A.~G. Salinger (2001).
\newblock Large-scale eigenvalue calculations for stability analysis of steady
  flows on massively parallel computers.
\newblock {\em Int. J. Numer. Meth. Fluids\/},
  36:309--327.

\bibitem[{Lehoucq {\em et~al.\/}(1998)Lehoucq, Sorensen, and
  Yang}]{Lehoucq:1998:AUG}
Lehoucq, R.~B., D.~C. Sorensen, and C.~Yang (1998).
\newblock {\em {ARPACK} Users' Guide, Solution of Large-Scale Eigenvalue
  Problems by Implicitly Restarted {A}rnoldi Methods\/}.
\newblock Society for Industrial and Applied Mathematics, Philadelphia, PA.

\bibitem[{Marques(1995)}]{Marques:1995:BDU}
Marques, O.~A. (1995).
\newblock {BLZPACK}: Description and User's Guide.
\newblock Technical Report TR/PA/95/30, CERFACS, Toulouse, France.

\bibitem[{Maschhoff and Sorensen(1996)}]{Maschhoff:1996:PEP}
Maschhoff, K.~J. and D.~C. Sorensen (1996).
\newblock {PARPACK}: An efficient portable large scale eigenvalue package for
  distributed memory parallel architectures.
\newblock {\em Lect. Notes Comp. Sci.\/}, 1184:478--486.

\bibitem[{Meerbergen and Spence(1997)}]{Meerbergen:1997:IRA}
Meerbergen, K. and A.~Spence (1997).
\newblock Implicitly restarted {Arnoldi} with purification for the shift-invert
  transformation.
\newblock {\em Math. Comp.\/}, 66(218):667--689.

\bibitem[{Meerbergen {\em et~al.\/}(1994)Meerbergen, Spence, and
  Roose}]{Meerbergen:1994:SCT}
Meerbergen, K., A.~Spence, and D.~Roose (1994).
\newblock Shift-invert and {Cayley} transforms for detection of rightmost
  eigenvalues of nonsymmetric matrices.
\newblock {\em {BIT}\/}, 34(3):409--423.

\bibitem[{Mehrmann and Voss(2004)}]{Mehrmann:2004:NEP}
Mehrmann, V. and H.~Voss (2004).
\newblock Nonlinear eigenvalue problems: a challenge for modern eigenvalue
  methods.
\newblock {\em {GAMM} Mitt.\/}, 27(2):121--152.

\bibitem[{Morgan and Zeng(2006)}]{Morgan:2006:HRA}
Morgan, R.~B. and M.~Zeng (2006).
\newblock A harmonic restarted {Arnoldi} algorithm for calculating eigenvalues
  and determining multiplicity.
\newblock {\em Linear Algebra Appl.\/}, 415(1):96--113.

\bibitem[{{MPI Forum}(1994)}]{MPI-Forum:1994:MMI}
{MPI Forum} (1994).
\newblock {MPI}: a message-passing interface standard.
\newblock {\em Int. J. Supercomp. Applic. High Perf. Comp.\/}, 8(3/4):159--416.

\bibitem[{Nour-Omid {\em et~al.\/}(1987)Nour-Omid, Parlett, Ericsson, and
  Jensen}]{Nour-Omid:1987:HIS}
Nour-Omid, B., B.~N. Parlett, T.~Ericsson, and P.~S. Jensen (1987).
\newblock How to implement the spectral transformation.
\newblock {\em Math. Comp.\/}, 48(178):663--673.

\bibitem[{Parlett(1980)}]{Parlett:1980:SEP}
Parlett, B.~N. (1980).
\newblock {\em The Symmetric Eigenvalue Problem\/}.
\newblock Prentice-Hall, Englewood Cliffs, NJ.
\newblock Reissued with revisions by SIAM, Philadelphia, 1998.

\bibitem[{Polizzi(2009)}]{Polizzi:2009:DAS}
Polizzi, E. (2009).
\newblock Density-matrix-based algorithm for solving eigenvalue problems.
\newblock {\em Phys. Rev. B\/}, 79:115112.

\bibitem[{Saad(1992)}]{Saad:1992:NML}
Saad, Y. (1992).
\newblock {\em Numerical Methods for Large Eigenvalue Problems: Theory and
  Algorithms\/}.
\newblock John Wiley and Sons, New York.

\bibitem[{Scott(1982)}]{Scott:1982:AIO}
Scott, D.~S. (1982).
\newblock The advantages of inverted operators in {Rayleigh-Ritz}
  approximations.
\newblock {\em {SIAM} J. Sci. Statist. Comput.\/}, 3(1):68--75.

\bibitem[{Sidje(1998)}]{Sidje:1998:ESP}
Sidje, R.~B. (1998).
\newblock Expokit: a software package for computing matrix exponentials.
\newblock {\em {ACM} Trans. Math. Softw.\/}, 24(1):130--156.

\bibitem[{Stathopoulos and McCombs(2010)}]{Stathopoulos:2010:PMS}
Stathopoulos, A. and J.~R. McCombs (2010).
\newblock {PRIMME: PReconditioned Iterative MultiMethod Eigensolver}: methods
  and software description.
\newblock {\em {ACM} Trans. Math. Softw.\/}, 37(2):21:1--21:30.

\bibitem[{Stewart(2001)}]{Stewart:2001:MAV}
Stewart, G.~W. (2001).
\newblock {\em Matrix Algorithms. {Volume II}: Eigensystems\/}.
\newblock Society for Industrial and Applied Mathematics, Philadelphia, PA,
  USA.

\bibitem[{Tisseur(2000)}]{Tisseur:2000:BEC}
Tisseur, F. (2000).
\newblock Backward error and condition of polynomial eigenvalue problems.
\newblock {\em Linear Algebra Appl.\/}, 309(1--3):339--361.

\bibitem[{Tisseur and Meerbergen(2001)}]{Tisseur:2001:QEP}
Tisseur, F. and K.~Meerbergen (2001).
\newblock The quadratic eigenvalue problem.
\newblock {\em {SIAM} Rev.\/}, 43(2):235--286.

\bibitem[{Wu and Simon(2000)}]{Wu:2000:TLM}
Wu, K. and H.~Simon (2000).
\newblock Thick-restart {Lanczos} method for large symmetric eigenvalue
  Problems.
\newblock {\em {SIAM} J. Matrix Anal. Appl.\/}, 22(2):602--616.

\end{thebibliography}
